计算机硬件综合课程设计/quartus/timing/simulation/qsim/Timig2627.msim.vcd
$comment
	File created using the following command:
		vcd file Timig2627.msim.vcd -direction
$end
$date
	Fri Oct 20 16:03:14 2023
$end
$version
	ModelSim Version 10.5b
$end
$timescale
	1ps
$end

$scope module Timig2627_vlg_vec_tst $end
$var reg 1 ! CLK1 $end
$var reg 1 " RST1 $end
$var reg 1 # s0 $end
$var wire 1 $ T1 $end
$var wire 1 % T2 $end
$var wire 1 & T3 $end
$var wire 1 ' T4 $end

$scope module i1 $end
$var wire 1 ( gnd $end
$var wire 1 ) vcc $end
$var wire 1 * unknown $end
$var tri1 1 + devclrn $end
$var tri1 1 , devpor $end
$var tri1 1 - devoe $end
$var wire 1 . T1~output_o $end
$var wire 1 / T4~output_o $end
$var wire 1 0 T3~output_o $end
$var wire 1 1 T2~output_o $end
$var wire 1 2 s0~input_o $end
$var wire 1 3 inst5~feeder_combout $end
$var wire 1 4 RST1~input_o $end
$var wire 1 5 RST1~inputclkctrl_outclk $end
$var wire 1 6 inst5~q $end
$var wire 1 7 inst6~feeder_combout $end
$var wire 1 8 inst6~q $end
$var wire 1 9 inst7~feeder_combout $end
$var wire 1 : inst7~q $end
$var wire 1 ; inst8~q $end
$var wire 1 < CLK1~input_o $end
$var wire 1 = ins10t~combout $end
$var wire 1 > ins10t~clkctrl_outclk $end
$var wire 1 ? inst3|5~0_combout $end
$var wire 1 @ inst3|5~1_combout $end
$var wire 1 A inst4~q $end
$upscope $end
$upscope $end
$enddefinitions $end
#0
$dumpvars
0!
0"
1#
0$
0%
0&
0'
0(
1)
x*
1+
1,
1-
0.
0/
00
01
12
03
04
05
06
07
08
09
0:
0;
0<
0=
0>
1?
1@
0A
$end
#10000
1"
1!
14
1<
15
1=
1>
1A
1.
0?
1$
13
0@
#20000
0!
0<
0=
0>
#30000
1!
1<
1=
1>
0A
16
11
0.
1?
0$
1%
03
17
#40000
0!
0<
0=
0>
#50000
1!
1<
1=
1>
18
06
01
10
0?
1&
0%
19
1@
07
0@
#60000
0!
0<
0=
0>
#70000
1!
1<
1=
1>
1:
08
00
1/
1?
1'
0&
09
1@
#80000
0!
0<
0=
0>
#90000
1!
1<
1=
1>
1;
1A
0:
0/
1.
0?
1$
0'
13
0@
#100000
0!
0<
0=
0>
#110000
1!
1<
1=
1>
0;
0A
16
11
0.
1?
0$
1%
03
17
#120000
0!
0<
0=
0>
#130000
1!
1<
1=
1>
18
06
01
10
0?
1&
0%
19
1@
07
0@
#140000
0!
0<
0=
0>
#150000
1!
1<
1=
1>
1:
08
00
1/
1?
1'
0&
09
1@
#160000
0"
0!
04
0<
05
0=
0>
0:
0/
0'
#170000
1"
1!
14
1<
15
1=
1>
1A
1.
0?
1$
13
0@
#180000
0!
0<
0=
0>
#190000
1!
1<
1=
1>
0A
16
11
0.
1?
0$
1%
03
17
#200000
0!
0<
0=
0>
#210000
1!
1<
1=
1>
18
06
01
10
0?
1&
0%
19
1@
07
0@
#220000
0!
0<
0=
0>
#230000
1!
1<
1=
1>
1:
08
00
1/
1?
1'
0&
09
1@
#240000
0!
0<
0=
0>
#250000
1!
1<
1=
1>
1;
1A
0:
0/
1.
0?
1$
0'
13
0@
#260000
0!
0<
0=
0>
#270000
1!
1<
1=
1>
0;
0A
16
11
0.
1?
0$
1%
03
17
#280000
0!
0<
0=
0>
#290000
1!
1<
1=
1>
18
06
01
10
0?
1&
0%
19
1@
07
0@
#300000
0!
0<
0=
0>
#310000
0"
1!
04
1<
05
1=
1>
08
00
1?
0&
09
1@
#320000
1"
0!
14
0<
15
0=
0>
#330000
1!
1<
1=
1>
1A
1.
0?
1$
13
0@
#340000
0!
0<
0=
0>
#350000
1!
1<
1=
1>
0A
16
11
0.
1?
0$
1%
03
17
#360000
0!
0<
0=
0>
#370000
1!
1<
1=
1>
18
06
01
10
0?
1&
0%
19
1@
07
0@
#380000
0!
0<
0=
0>
#390000
1!
1<
1=
1>
1:
08
00
1/
1?
1'
0&
09
1@
#400000
0!
0<
0=
0>
#410000
0"
1!
04
1<
05
1=
1>
0:
0/
0'
#420000
1"
0!
14
0<
15
0=
0>
#430000
1!
1<
1=
1>
1A
1.
0?
1$
13
0@
#440000
0!
0<
0=
0>
#450000
1!
1<
1=
1>
0A
16
11
0.
1?
0$
1%
03
17
#460000
0!
0<
0=
0>
#470000
0"
1!
04
1<
05
1=
1>
06
01
0%
1@
07
#480000
1"
0!
14
0<
15
0=
0>
#490000
1!
1<
1=
1>
1A
1.
0?
1$
13
0@
#500000
0!
0<
0=
0>
#510000
1!
1<
1=
1>
0A
16
11
0.
1?
0$
1%
03
17
#520000
0!
0<
0=
0>
#530000
1!
1<
1=
1>
18
06
01
10
0?
1&
0%
19
1@
07
0@
#540000
0!
0<
0=
0>
#550000
1!
1<
1=
1>
1:
08
00
1/
1?
1'
0&
09
1@
#560000
0!
0<
0=
0>
#570000
1!
1<
1=
1>
1;
1A
0:
0/
1.
0?
1$
0'
13
0@
#580000
0!
0<
0=
0>
#590000
0"
1!
04
1<
05
1=
1>
0;
0A
0.
1?
0$
03
1@
#600000
1"
0!
14
0<
15
0=
0>
#610000
1!
1<
1=
1>
1A
1.
0?
1$
13
0@
#620000
0!
0<
0=
0>
#630000
1!
1<
1=
1>
0A
16
11
0.
1?
0$
1%
03
17
