计算机硬件综合课程设计/quartus/timing/simulation/qsim/timing2627.msim.vcd
$comment
	File created using the following command:
		vcd file timing2627.msim.vcd -direction
$end
$date
	Tue Oct 24 15:45:22 2023
$end
$version
	ModelSim Version 10.5b
$end
$timescale
	1ps
$end

$scope module timing2627_vlg_vec_tst $end
$var reg 1 ! CLK1 $end
$var reg 1 " RST1 $end
$var reg 1 # s0 $end
$var wire 1 $ debug_clk $end
$var wire 1 % debug_D $end
$var wire 1 & T1 $end
$var wire 1 ' T2 $end
$var wire 1 ( T3 $end
$var wire 1 ) T4 $end

$scope module i1 $end
$var wire 1 * gnd $end
$var wire 1 + vcc $end
$var wire 1 , unknown $end
$var tri1 1 - devclrn $end
$var tri1 1 . devpor $end
$var tri1 1 / devoe $end
$var wire 1 0 T1~output_o $end
$var wire 1 1 T4~output_o $end
$var wire 1 2 T3~output_o $end
$var wire 1 3 T2~output_o $end
$var wire 1 4 debug_clk~output_o $end
$var wire 1 5 debug_D~output_o $end
$var wire 1 6 inst5~feeder_combout $end
$var wire 1 7 RST1~input_o $end
$var wire 1 8 inst5~q $end
$var wire 1 9 inst6~feeder_combout $end
$var wire 1 : inst6~q $end
$var wire 1 ; inst7~feeder_combout $end
$var wire 1 < inst7~q $end
$var wire 1 = inst8~q $end
$var wire 1 > s0~input_o $end
$var wire 1 ? CLK1~input_o $end
$var wire 1 @ ins10t~combout $end
$var wire 1 A ins10t~clkctrl_outclk $end
$var wire 1 B inst3|5~0_combout $end
$var wire 1 C inst3|5~1_combout $end
$var wire 1 D inst4~feeder_combout $end
$var wire 1 E inst4~q $end
$upscope $end
$upscope $end
$enddefinitions $end
#0
$dumpvars
0!
0"
1#
0$
1%
0&
0'
0(
0)
0*
1+
x,
1-
1.
1/
00
01
02
03
04
15
06
07
08
09
0:
0;
0<
0=
1>
0?
0@
0A
1B
1C
1D
0E
$end
#10000
1!
1?
1@
1A
14
1$
#20000
1"
0!
17
0?
0@
0A
04
0$
#30000
1!
1?
1@
1A
14
1$
1E
10
0B
1&
16
0C
05
0%
0D
#40000
0!
0?
0@
0A
04
0$
#50000
1!
1?
1@
1A
14
1$
0E
18
13
00
1B
0&
1'
06
19
#60000
0!
0?
0@
0A
04
0$
#70000
0"
1!
07
1?
1@
1A
14
1$
08
03
0'
1C
09
15
1%
1D
#80000
1"
0!
17
0?
0@
0A
04
0$
#90000
1!
1?
1@
1A
14
1$
1E
10
0B
1&
16
0C
05
0%
0D
#100000
0!
0?
0@
0A
04
0$
#110000
1!
1?
1@
1A
14
1$
0E
18
13
00
1B
0&
1'
06
19
#120000
0!
0?
0@
0A
04
0$
#130000
1!
1?
1@
1A
14
1$
1:
08
03
12
0B
1(
0'
1;
1C
09
15
1%
0C
1D
05
0%
0D
#140000
0!
0?
0@
0A
04
0$
#150000
1!
1?
1@
1A
14
1$
1<
0:
02
11
1B
1)
0(
0;
1C
15
1%
1D
#160000
0"
0!
07
0?
0@
0A
04
0$
0<
01
0)
#170000
1"
1!
17
1?
1@
1A
14
1$
1E
10
0B
1&
16
0C
05
0%
0D
#180000
0!
0?
0@
0A
04
0$
#190000
1!
1?
1@
1A
14
1$
0E
18
13
00
1B
0&
1'
06
19
#200000
0!
0?
0@
0A
04
0$
#210000
1!
1?
1@
1A
14
1$
1:
08
03
12
0B
1(
0'
1;
1C
09
15
1%
0C
1D
05
0%
0D
#220000
0!
0?
0@
0A
04
0$
#230000
1!
1?
1@
1A
14
1$
1<
0:
02
11
1B
1)
0(
0;
1C
15
1%
1D
#240000
0!
0?
0@
0A
04
0$
#250000
1!
1?
1@
1A
14
1$
1=
1E
0<
01
10
0B
1&
0)
16
0C
05
0%
0D
#260000
0!
0?
0@
0A
04
0$
#270000
1!
1?
1@
1A
14
1$
0=
0E
18
13
00
1B
0&
1'
06
19
#280000
0!
0?
0@
0A
04
0$
#290000
1!
1?
1@
1A
14
1$
1:
08
03
12
0B
1(
0'
1;
1C
09
15
1%
0C
1D
05
0%
0D
#300000
0!
0?
0@
0A
04
0$
#310000
1!
1?
1@
1A
14
1$
1<
0:
02
11
1B
1)
0(
0;
1C
15
1%
1D
#320000
0#
0!
0>
0?
0B
0@
0A
04
0$
0C
05
0%
0D
#330000
0"
1!
07
1?
1@
1A
14
1$
0<
01
1B
0)
1C
15
1%
1D
#340000
0!
0?
0@
0A
04
0$
#350000
1!
1?
1@
1A
14
1$
#360000
0!
0?
0@
0A
04
0$
#370000
1!
1?
1@
1A
14
1$
#380000
0!
0?
0@
0A
04
0$
#390000
1!
1?
1@
1A
14
1$
#400000
1"
0!
17
0?
0@
0A
04
0$
#410000
1!
1?
1@
1A
14
1$
1E
10
0B
1&
16
0C
05
0%
0D
#420000
0!
0?
0@
0A
04
0$
#430000
1!
1?
1@
1A
14
1$
0E
18
13
00
1B
0&
1'
06
19
#440000
0!
0?
0@
0A
04
0$
#450000
1!
1?
1@
1A
14
1$
1:
08
03
12
0B
1(
0'
1;
1C
09
15
1%
0C
1D
05
0%
0D
#460000
0!
0?
0@
0A
04
0$
#470000
1!
1?
1@
1A
14
1$
1<
0:
02
11
1)
0(
0;
#480000
0!
0?
0@
0A
04
0$
#490000
1!
1?
1@
1A
14
1$
1=
0<
01
1B
0)
1C
15
1%
1D
#500000
0!
0?
#510000
1!
1?
#520000
0!
0?
#530000
1!
1?
#540000
0"
0!
07
0?
0=
0@
0A
04
0$
#550000
1!
1?
1@
1A
14
1$
#560000
1"
0!
17
0?
0@
0A
04
0$
#570000
1!
1?
1@
1A
14
1$
1E
10
0B
1&
16
0C
05
0%
0D
#580000
0!
0?
0@
0A
04
0$
#590000
1!
1?
1@
1A
14
1$
0E
18
13
00
1B
0&
1'
06
19
#600000
0!
0?
0@
0A
04
0$
#610000
0"
1!
07
1?
1@
1A
14
1$
08
03
0'
1C
09
15
1%
1D
#620000
0!
0?
0@
0A
04
0$
#630000
1"
1!
17
1?
1@
1A
14
1$
1E
10
0B
1&
16
0C
05
0%
0D
