计算机硬件综合课程设计/quartus/3.register/simulation/qsim/register.msim.vcd
$comment
	File created using the following command:
		vcd file register.msim.vcd -direction
$end
$date
	Tue Sep 26 10:20:12 2023
$end
$version
	ModelSim Version 10.5b
$end
$timescale
	1ps
$end

$scope module register2627_vlg_vec_tst $end
$var reg 1 ! CLK $end
$var reg 8 " D [7:0] $end
$var wire 1 # Q [7] $end
$var wire 1 $ Q [6] $end
$var wire 1 % Q [5] $end
$var wire 1 & Q [4] $end
$var wire 1 ' Q [3] $end
$var wire 1 ( Q [2] $end
$var wire 1 ) Q [1] $end
$var wire 1 * Q [0] $end

$scope module i1 $end
$var wire 1 + gnd $end
$var wire 1 , vcc $end
$var wire 1 - unknown $end
$var tri1 1 . devclrn $end
$var tri1 1 / devpor $end
$var tri1 1 0 devoe $end
$var wire 1 1 Q[7]~output_o $end
$var wire 1 2 Q[6]~output_o $end
$var wire 1 3 Q[5]~output_o $end
$var wire 1 4 Q[4]~output_o $end
$var wire 1 5 Q[3]~output_o $end
$var wire 1 6 Q[2]~output_o $end
$var wire 1 7 Q[1]~output_o $end
$var wire 1 8 Q[0]~output_o $end
$var wire 1 9 CLK~input_o $end
$var wire 1 : CLK~inputclkctrl_outclk $end
$var wire 1 ; D[7]~input_o $end
$var wire 1 < inst|12~q $end
$var wire 1 = D[6]~input_o $end
$var wire 1 > inst|13~q $end
$var wire 1 ? D[5]~input_o $end
$var wire 1 @ inst|14~q $end
$var wire 1 A D[4]~input_o $end
$var wire 1 B inst|15~q $end
$var wire 1 C D[3]~input_o $end
$var wire 1 D inst|16~feeder_combout $end
$var wire 1 E inst|16~q $end
$var wire 1 F D[2]~input_o $end
$var wire 1 G inst|17~feeder_combout $end
$var wire 1 H inst|17~q $end
$var wire 1 I D[1]~input_o $end
$var wire 1 J inst|18~q $end
$var wire 1 K D[0]~input_o $end
$var wire 1 L inst|19~feeder_combout $end
$var wire 1 M inst|19~q $end
$upscope $end
$upscope $end
$enddefinitions $end
#0
$dumpvars
0!
b0 "
0*
0)
0(
0'
0&
0%
0$
0#
0+
1,
x-
1.
1/
10
01
02
03
04
05
06
07
08
09
0:
0;
0<
0=
0>
0?
0@
0A
0B
0C
0D
0E
0F
0G
0H
0I
0J
0K
0L
0M
$end
#750
1!
19
1:
#1000
b1 "
1K
1L
#1500
0!
09
0:
#2000
b11 "
b10 "
0K
1I
0L
#2250
1!
19
1:
1J
17
1)
#3000
b11 "
0!
1K
09
0:
1L
#3750
1!
19
1:
1M
18
1*
#4000
b111 "
b101 "
b100 "
0K
0I
1F
0L
1G
#4500
0!
09
0:
#5000
b101 "
1K
1L
#5250
1!
19
1:
0J
1H
16
07
0)
1(
#6000
b111 "
b110 "
0!
0K
1I
09
0:
0L
#6750
1!
19
1:
0M
1J
17
08
0*
1)
#7000
b111 "
1K
1L
#7500
0!
09
0:
#8000
b1111 "
b1011 "
b1001 "
b1000 "
0K
0I
0F
1C
0L
0G
1D
#8250
1!
19
1:
0J
0H
1E
15
06
07
0)
0(
1'
#9000
b1001 "
0!
1K
09
0:
1L
#9750
1!
19
1:
1M
18
1*
#10000
b1011 "
b1010 "
0K
1I
0L
#10500
0!
09
0:
#11000
b1011 "
1K
1L
#11250
1!
19
1:
1J
17
1)
#12000
b1111 "
b1101 "
b1100 "
0!
0K
0I
1F
09
0:
0L
1G
#12750
1!
19
1:
0M
0J
1H
16
07
08
0*
0)
1(
#13000
b1101 "
1K
1L
#13500
0!
09
0:
#14000
b1111 "
b1110 "
0K
1I
0L
#14250
1!
19
1:
1J
17
1)
#15000
b1111 "
0!
1K
09
0:
1L
#15750
1!
19
1:
1M
18
1*
#16000
b11111 "
b10111 "
b10011 "
b10001 "
b10000 "
0K
0I
0F
0C
1A
0L
0G
0D
#16500
0!
09
0:
#17000
b10001 "
1K
1L
#17250
1!
19
1:
0J
0H
0E
1B
14
05
06
07
0)
0(
0'
1&
#18000
b10011 "
b10010 "
0!
0K
1I
09
0:
0L
#18750
1!
19
1:
0M
1J
17
08
0*
1)
#19000
b10011 "
1K
1L
#19500
0!
09
0:
#20000
b10111 "
b10101 "
b10100 "
0K
0I
1F
0L
1G
#20250
1!
19
1:
0J
1H
16
07
0)
1(
#21000
b10101 "
0!
1K
09
0:
1L
#21750
1!
19
1:
1M
18
1*
#22000
b10111 "
b10110 "
0K
1I
0L
#22500
0!
09
0:
#23000
b10111 "
1K
1L
#23250
1!
19
1:
1J
17
1)
#24000
b11111 "
b11011 "
b11001 "
b11000 "
0!
0K
0I
0F
1C
09
0:
0L
0G
1D
#24750
1!
19
1:
0M
0J
0H
1E
15
06
07
08
0*
0)
0(
1'
#25000
b11001 "
1K
1L
#25500
0!
09
0:
#26000
b11011 "
b11010 "
0K
1I
0L
#26250
1!
19
1:
1J
17
1)
#27000
b11011 "
0!
1K
09
0:
1L
#27750
1!
19
1:
1M
18
1*
#28000
b11111 "
b11101 "
b11100 "
0K
0I
1F
0L
1G
#28500
0!
09
0:
#29000
b11101 "
1K
1L
#29250
1!
19
1:
0J
1H
16
07
0)
1(
#30000
b11111 "
b11110 "
0!
0K
1I
09
0:
0L
#30750
1!
19
1:
0M
1J
17
08
0*
1)
#31000
b11111 "
1K
1L
#31500
0!
09
0:
#32000
b111111 "
b101111 "
b100111 "
b100011 "
b100001 "
b100000 "
0K
0I
0F
0C
0A
1?
0L
0G
0D
#32250
1!
19
1:
0J
0H
0E
0B
1@
13
04
05
06
07
0)
0(
0'
0&
1%
#33000
b100001 "
0!
1K
09
0:
1L
#33750
1!
19
1:
1M
18
1*
#34000
b100011 "
b100010 "
0K
1I
0L
#34500
0!
09
0:
#35000
b100011 "
1K
1L
#35250
1!
19
1:
1J
17
1)
#36000
b100111 "
b100101 "
b100100 "
0!
0K
0I
1F
09
0:
0L
1G
#36750
1!
19
1:
0M
0J
1H
16
07
08
0*
0)
1(
#37000
b100101 "
1K
1L
#37500
0!
09
0:
#38000
b100111 "
b100110 "
0K
1I
0L
#38250
1!
19
1:
1J
17
1)
#39000
b100111 "
0!
1K
09
0:
1L
#39750
1!
19
1:
1M
18
1*
#40000
b101111 "
b101011 "
b101001 "
b101000 "
0K
0I
0F
1C
0L
0G
1D
#40500
0!
09
0:
#41000
b101001 "
1K
1L
#41250
1!
19
1:
0J
0H
1E
15
06
07
0)
0(
1'
#42000
b101011 "
b101010 "
0!
0K
1I
09
0:
0L
#42750
1!
19
1:
0M
1J
17
08
0*
1)
#43000
b101011 "
1K
1L
#43500
0!
09
0:
#44000
b101111 "
b101101 "
b101100 "
0K
0I
1F
0L
1G
#44250
1!
19
1:
0J
1H
16
07
0)
1(
#45000
b101101 "
0!
1K
09
0:
1L
#45750
1!
19
1:
1M
18
1*
#46000
b101111 "
b101110 "
0K
1I
0L
#46500
0!
09
0:
#47000
b101111 "
1K
1L
#47250
1!
19
1:
1J
17
1)
#48000
b111111 "
b110111 "
b110011 "
b110001 "
b110000 "
0!
0K
0I
0F
0C
1A
09
0:
0L
0G
0D
#48750
1!
19
1:
0M
0J
0H
0E
1B
14
05
06
07
08
0*
0)
0(
0'
1&
#49000
b110001 "
1K
1L
#49500
0!
09
0:
#50000
b110011 "
b110010 "
0K
1I
0L
#50250
1!
19
1:
1J
17
1)
#51000
b110011 "
0!
1K
09
0:
1L
#51750
1!
19
1:
1M
18
1*
#52000
b110111 "
b110101 "
b110100 "
0K
0I
1F
0L
1G
#52500
0!
09
0:
#53000
b110101 "
1K
1L
#53250
1!
19
1:
0J
1H
16
07
0)
1(
#54000
b110111 "
b110110 "
0!
0K
1I
09
0:
0L
#54750
1!
19
1:
0M
1J
17
08
0*
1)
#55000
b110111 "
1K
1L
#55500
0!
09
0:
#56000
b111111 "
b111011 "
b111001 "
b111000 "
0K
0I
0F
1C
0L
0G
1D
#56250
1!
19
1:
0J
0H
1E
15
06
07
0)
0(
1'
#57000
b111001 "
0!
1K
09
0:
1L
#57750
1!
19
1:
1M
18
1*
#58000
b111011 "
b111010 "
0K
1I
0L
#58500
0!
09
0:
#59000
b111011 "
1K
1L
#59250
1!
19
1:
1J
17
1)
#60000
b111111 "
b111101 "
b111100 "
0!
0K
0I
1F
09
0:
0L
1G
#60750
1!
19
1:
0M
0J
1H
16
07
08
0*
0)
1(
#61000
b111101 "
1K
1L
#61500
0!
09
0:
#62000
b111111 "
b111110 "
0K
1I
0L
#62250
1!
19
1:
1J
17
1)
#63000
b111111 "
0!
1K
09
0:
1L
#63750
1!
19
1:
1M
18
1*
#64000
b1111111 "
b1011111 "
b1001111 "
b1000111 "
b1000011 "
b1000001 "
b1000000 "
0K
0I
0F
0C
0A
0?
1=
0L
0G
0D
#64500
0!
09
0:
#65000
b1000001 "
1K
1L
#65250
1!
19
1:
0J
0H
0E
0B
0@
1>
12
03
04
05
06
07
0)
0(
0'
0&
0%
1$
#66000
b1000011 "
b1000010 "
0!
0K
1I
09
0:
0L
#66750
1!
19
1:
0M
1J
17
08
0*
1)
#67000
b1000011 "
1K
1L
#67500
0!
09
0:
#68000
b1000111 "
b1000101 "
b1000100 "
0K
0I
1F
0L
1G
#68250
1!
19
1:
0J
1H
16
07
0)
1(
#69000
b1000101 "
0!
1K
09
0:
1L
#69750
1!
19
1:
1M
18
1*
#70000
b1000111 "
b1000110 "
0K
1I
0L
#70500
0!
09
0:
#71000
b1000111 "
1K
1L
#71250
1!
19
1:
1J
17
1)
#72000
b1001111 "
b1001011 "
b1001001 "
b1001000 "
0!
0K
0I
0F
1C
09
0:
0L
0G
1D
#72750
1!
19
1:
0M
0J
0H
1E
15
06
07
08
0*
0)
0(
1'
#73000
b1001001 "
1K
1L
#73500
0!
09
0:
#74000
b1001011 "
b1001010 "
0K
1I
0L
#74250
1!
19
1:
1J
17
1)
#75000
b1001011 "
0!
1K
09
0:
1L
#75750
1!
19
1:
1M
18
1*
#76000
b1001111 "
b1001101 "
b1001100 "
0K
0I
1F
0L
1G
#76500
0!
09
0:
#77000
b1001101 "
1K
1L
#77250
1!
19
1:
0J
1H
16
07
0)
1(
#78000
b1001111 "
b1001110 "
0!
0K
1I
09
0:
0L
#78750
1!
19
1:
0M
1J
17
08
0*
1)
#79000
b1001111 "
1K
1L
#79500
0!
09
0:
#80000
b1011111 "
b1010111 "
b1010011 "
b1010001 "
b1010000 "
0K
0I
0F
0C
1A
0L
0G
0D
#80250
1!
19
1:
0J
0H
0E
1B
14
05
06
07
0)
0(
0'
1&
#81000
b1010001 "
0!
1K
09
0:
1L
#81750
1!
19
1:
1M
18
1*
#82000
b1010011 "
b1010010 "
0K
1I
0L
#82500
0!
09
0:
#83000
b1010011 "
1K
1L
#83250
1!
19
1:
1J
17
1)
#84000
b1010111 "
b1010101 "
b1010100 "
0!
0K
0I
1F
09
0:
0L
1G
#84750
1!
19
1:
0M
0J
1H
16
07
08
0*
0)
1(
#85000
b1010101 "
1K
1L
#85500
0!
09
0:
#86000
b1010111 "
b1010110 "
0K
1I
0L
#86250
1!
19
1:
1J
17
1)
#87000
b1010111 "
0!
1K
09
0:
1L
#87750
1!
19
1:
1M
18
1*
#88000
b1011111 "
b1011011 "
b1011001 "
b1011000 "
0K
0I
0F
1C
0L
0G
1D
#88500
0!
09
0:
#89000
b1011001 "
1K
1L
#89250
1!
19
1:
0J
0H
1E
15
06
07
0)
0(
1'
#90000
b1011011 "
b1011010 "
0!
0K
1I
09
0:
0L
#90750
1!
19
1:
0M
1J
17
08
0*
1)
#91000
b1011011 "
1K
1L
#91500
0!
09
0:
#92000
b1011111 "
b1011101 "
b1011100 "
0K
0I
1F
0L
1G
#92250
1!
19
1:
0J
1H
16
07
0)
1(
#93000
b1011101 "
0!
1K
09
0:
1L
#93750
1!
19
1:
1M
18
1*
#94000
b1011111 "
b1011110 "
0K
1I
0L
#94500
0!
09
0:
#95000
b1011111 "
1K
1L
#95250
1!
19
1:
1J
17
1)
#96000
b1111111 "
b1101111 "
b1100111 "
b1100011 "
b1100001 "
b1100000 "
0!
0K
0I
0F
0C
0A
1?
09
0:
0L
0G
0D
#96750
1!
19
1:
0M
0J
0H
0E
0B
1@
13
04
05
06
07
08
0*
0)
0(
0'
0&
1%
#97000
b1100001 "
1K
1L
#97500
0!
09
0:
#98000
b1100011 "
b1100010 "
0K
1I
0L
#98250
1!
19
1:
1J
17
1)
#99000
b1100011 "
0!
1K
09
0:
1L
#99750
1!
19
1:
1M
18
1*
#100000
b1100111 "
b1100101 "
b1100100 "
0K
0I
1F
0L
1G
#100500
0!
09
0:
#101000
b1100101 "
1K
1L
#101250
1!
19
1:
0J
1H
16
07
0)
1(
#102000
b1100111 "
b1100110 "
0!
0K
1I
09
0:
0L
#102750
1!
19
1:
0M
1J
17
08
0*
1)
#103000
b1100111 "
1K
1L
#103500
0!
09
0:
#104000
b1101111 "
b1101011 "
b1101001 "
b1101000 "
0K
0I
0F
1C
0L
0G
1D
#104250
1!
19
1:
0J
0H
1E
15
06
07
0)
0(
1'
#105000
b1101001 "
0!
1K
09
0:
1L
#105750
1!
19
1:
1M
18
1*
#106000
b1101011 "
b1101010 "
0K
1I
0L
#106500
0!
09
0:
#107000
b1101011 "
1K
1L
#107250
1!
19
1:
1J
17
1)
#108000
b1101111 "
b1101101 "
b1101100 "
0!
0K
0I
1F
09
0:
0L
1G
#108750
1!
19
1:
0M
0J
1H
16
07
08
0*
0)
1(
#109000
b1101101 "
1K
1L
#109500
0!
09
0:
#110000
b1101111 "
b1101110 "
0K
1I
0L
#110250
1!
19
1:
1J
17
1)
#111000
b1101111 "
0!
1K
09
0:
1L
#111750
1!
19
1:
1M
18
1*
#112000
b1111111 "
b1110111 "
b1110011 "
b1110001 "
b1110000 "
0K
0I
0F
0C
1A
0L
0G
0D
#112500
0!
09
0:
#113000
b1110001 "
1K
1L
#113250
1!
19
1:
0J
0H
0E
1B
14
05
06
07
0)
0(
0'
1&
#114000
b1110011 "
b1110010 "
0!
0K
1I
09
0:
0L
#114750
1!
19
1:
0M
1J
17
08
0*
1)
#115000
b1110011 "
1K
1L
#115500
0!
09
0:
#116000
b1110111 "
b1110101 "
b1110100 "
0K
0I
1F
0L
1G
#116250
1!
19
1:
0J
1H
16
07
0)
1(
#117000
b1110101 "
0!
1K
09
0:
1L
#117750
1!
19
1:
1M
18
1*
#118000
b1110111 "
b1110110 "
0K
1I
0L
#118500
0!
09
0:
#119000
b1110111 "
1K
1L
#119250
1!
19
1:
1J
17
1)
#120000
b1111111 "
b1111011 "
b1111001 "
b1111000 "
0!
0K
0I
0F
1C
09
0:
0L
0G
1D
#120750
1!
19
1:
0M
0J
0H
1E
15
06
07
08
0*
0)
0(
1'
#121000
b1111001 "
1K
1L
#121500
0!
09
0:
#122000
b1111011 "
b1111010 "
0K
1I
0L
#122250
1!
19
1:
1J
17
1)
#123000
b1111011 "
0!
1K
09
0:
1L
#123750
1!
19
1:
1M
18
1*
#124000
b1111111 "
b1111101 "
b1111100 "
0K
0I
1F
0L
1G
#124500
0!
09
0:
#125000
b1111101 "
1K
1L
#125250
1!
19
1:
0J
1H
16
07
0)
1(
#126000
b1111111 "
b1111110 "
0!
0K
1I
09
0:
0L
#126750
1!
19
1:
0M
1J
17
08
0*
1)
#127000
b1111111 "
1K
1L
#127500
0!
09
0:
#128000
b11111111 "
b10111111 "
b10011111 "
b10001111 "
b10000111 "
b10000011 "
b10000001 "
b10000000 "
0K
0I
0F
0C
0A
0?
0=
1;
0L
0G
0D
#128250
1!
19
1:
0J
0H
0E
0B
0@
0>
1<
11
02
03
04
05
06
07
0)
0(
0'
0&
0%
0$
1#
#129000
b10000001 "
0!
1K
09
0:
1L
#129750
1!
19
1:
1M
18
1*
#130000
b10000011 "
b10000010 "
0K
1I
0L
#130500
0!
09
0:
#131000
b10000011 "
1K
1L
#131250
1!
19
1:
1J
17
1)
#132000
b10000111 "
b10000101 "
b10000100 "
0!
0K
0I
1F
09
0:
0L
1G
#132750
1!
19
1:
0M
0J
1H
16
07
08
0*
0)
1(
#133000
b10000101 "
1K
1L
#133500
0!
09
0:
#134000
b10000111 "
b10000110 "
0K
1I
0L
#134250
1!
19
1:
1J
17
1)
#135000
b10000111 "
0!
1K
09
0:
1L
#135750
1!
19
1:
1M
18
1*
#136000
b10001111 "
b10001011 "
b10001001 "
b10001000 "
0K
0I
0F
1C
0L
0G
1D
#136500
0!
09
0:
#137000
b10001001 "
1K
1L
#137250
1!
19
1:
0J
0H
1E
15
06
07
0)
0(
1'
#138000
b10001011 "
b10001010 "
0!
0K
1I
09
0:
0L
#138750
1!
19
1:
0M
1J
17
08
0*
1)
#139000
b10001011 "
1K
1L
#139500
0!
09
0:
#140000
b10001111 "
b10001101 "
b10001100 "
0K
0I
1F
0L
1G
#140250
1!
19
1:
0J
1H
16
07
0)
1(
#141000
b10001101 "
0!
1K
09
0:
1L
#141750
1!
19
1:
1M
18
1*
#142000
b10001111 "
b10001110 "
0K
1I
0L
#142500
0!
09
0:
#143000
b10001111 "
1K
1L
#143250
1!
19
1:
1J
17
1)
#144000
b10011111 "
b10010111 "
b10010011 "
b10010001 "
b10010000 "
0!
0K
0I
0F
0C
1A
09
0:
0L
0G
0D
#144750
1!
19
1:
0M
0J
0H
0E
1B
14
05
06
07
08
0*
0)
0(
0'
1&
#145000
b10010001 "
1K
1L
#145500
0!
09
0:
#146000
b10010011 "
b10010010 "
0K
1I
0L
#146250
1!
19
1:
1J
17
1)
#147000
b10010011 "
0!
1K
09
0:
1L
#147750
1!
19
1:
1M
18
1*
#148000
b10010111 "
b10010101 "
b10010100 "
0K
0I
1F
0L
1G
#148500
0!
09
0:
#149000
b10010101 "
1K
1L
#149250
1!
19
1:
0J
1H
16
07
0)
1(
#150000
b10010111 "
b10010110 "
0!
0K
1I
09
0:
0L
#150750
1!
19
1:
0M
1J
17
08
0*
1)
#151000
b10010111 "
1K
1L
#151500
0!
09
0:
#152000
b10011111 "
b10011011 "
b10011001 "
b10011000 "
0K
0I
0F
1C
0L
0G
1D
#152250
1!
19
1:
0J
0H
1E
15
06
07
0)
0(
1'
#153000
b10011001 "
0!
1K
09
0:
1L
#153750
1!
19
1:
1M
18
1*
#154000
b10011011 "
b10011010 "
0K
1I
0L
#154500
0!
09
0:
#155000
b10011011 "
1K
1L
#155250
1!
19
1:
1J
17
1)
#156000
b10011111 "
b10011101 "
b10011100 "
0!
0K
0I
1F
09
0:
0L
1G
#156750
1!
19
1:
0M
0J
1H
16
07
08
0*
0)
1(
#157000
b10011101 "
1K
1L
#157500
0!
09
0:
#158000
b10011111 "
b10011110 "
0K
1I
0L
#158250
1!
19
1:
1J
17
1)
#159000
b10011111 "
0!
1K
09
0:
1L
#159750
1!
19
1:
1M
18
1*
#160000
b10111111 "
b10101111 "
b10100111 "
b10100011 "
b10100001 "
b10100000 "
0K
0I
0F
0C
0A
1?
0L
0G
0D
#160500
0!
09
0:
#161000
b10100001 "
1K
1L
#161250
1!
19
1:
0J
0H
0E
0B
1@
13
04
05
06
07
0)
0(
0'
0&
1%
#162000
b10100011 "
b10100010 "
0!
0K
1I
09
0:
0L
#162750
1!
19
1:
0M
1J
17
08
0*
1)
#163000
b10100011 "
1K
1L
#163500
0!
09
0:
#164000
b10100111 "
b10100101 "
b10100100 "
0K
0I
1F
0L
1G
#164250
1!
19
1:
0J
1H
16
07
0)
1(
#165000
b10100101 "
0!
1K
09
0:
1L
#165750
1!
19
1:
1M
18
1*
#166000
b10100111 "
b10100110 "
0K
1I
0L
#166500
0!
09
0:
#167000
b10100111 "
1K
1L
#167250
1!
19
1:
1J
17
1)
#168000
b10101111 "
b10101011 "
b10101001 "
b10101000 "
0!
0K
0I
0F
1C
09
0:
0L
0G
1D
#168750
1!
19
1:
0M
0J
0H
1E
15
06
07
08
0*
0)
0(
1'
#169000
b10101001 "
1K
1L
#169500
0!
09
0:
#170000
b10101011 "
b10101010 "
0K
1I
0L
#170250
1!
19
1:
1J
17
1)
#171000
b10101011 "
0!
1K
09
0:
1L
#171750
1!
19
1:
1M
18
1*
#172000
b10101111 "
b10101101 "
b10101100 "
0K
0I
1F
0L
1G
#172500
0!
09
0:
#173000
b10101101 "
1K
1L
#173250
1!
19
1:
0J
1H
16
07
0)
1(
#174000
b10101111 "
b10101110 "
0!
0K
1I
09
0:
0L
#174750
1!
19
1:
0M
1J
17
08
0*
1)
#175000
b10101111 "
1K
1L
#175500
0!
09
0:
#176000
b10111111 "
b10110111 "
b10110011 "
b10110001 "
b10110000 "
0K
0I
0F
0C
1A
0L
0G
0D
#176250
1!
19
1:
0J
0H
0E
1B
14
05
06
07
0)
0(
0'
1&
#177000
b10110001 "
0!
1K
09
0:
1L
#177750
1!
19
1:
1M
18
1*
#178000
b10110011 "
b10110010 "
0K
1I
0L
#178500
0!
09
0:
#179000
b10110011 "
1K
1L
#179250
1!
19
1:
1J
17
1)
#180000
b10110111 "
b10110101 "
b10110100 "
0!
0K
0I
1F
09
0:
0L
1G
#180750
1!
19
1:
0M
0J
1H
16
07
08
0*
0)
1(
#181000
b10110101 "
1K
1L
#181500
0!
09
0:
#182000
b10110111 "
b10110110 "
0K
1I
0L
#182250
1!
19
1:
1J
17
1)
#183000
b10110111 "
0!
1K
09
0:
1L
#183750
1!
19
1:
1M
18
1*
#184000
b10111111 "
b10111011 "
b10111001 "
b10111000 "
0K
0I
0F
1C
0L
0G
1D
#184500
0!
09
0:
#185000
b10111001 "
1K
1L
#185250
1!
19
1:
0J
0H
1E
15
06
07
0)
0(
1'
#186000
b10111011 "
b10111010 "
0!
0K
1I
09
0:
0L
#186750
1!
19
1:
0M
1J
17
08
0*
1)
#187000
b10111011 "
1K
1L
#187500
0!
09
0:
#188000
b10111111 "
b10111101 "
b10111100 "
0K
0I
1F
0L
1G
#188250
1!
19
1:
0J
1H
16
07
0)
1(
#189000
b10111101 "
0!
1K
09
0:
1L
#189750
1!
19
1:
1M
18
1*
#190000
b10111111 "
b10111110 "
0K
1I
0L
#190500
0!
09
0:
#191000
b10111111 "
1K
1L
#191250
1!
19
1:
1J
17
1)
#192000
b11111111 "
b11011111 "
b11001111 "
b11000111 "
b11000011 "
b11000001 "
b11000000 "
0!
0K
0I
0F
0C
0A
0?
1=
09
0:
0L
0G
0D
#192750
1!
19
1:
0M
0J
0H
0E
0B
0@
1>
12
03
04
05
06
07
08
0*
0)
0(
0'
0&
0%
1$
#193000
b11000001 "
1K
1L
#193500
0!
09
0:
#194000
b11000011 "
b11000010 "
0K
1I
0L
#194250
1!
19
1:
1J
17
1)
#195000
b11000011 "
0!
1K
09
0:
1L
#195750
1!
19
1:
1M
18
1*
#196000
b11000111 "
b11000101 "
b11000100 "
0K
0I
1F
0L
1G
#196500
0!
09
0:
#197000
b11000101 "
1K
1L
#197250
1!
19
1:
0J
1H
16
07
0)
1(
#198000
b11000111 "
b11000110 "
0!
0K
1I
09
0:
0L
#198750
1!
19
1:
0M
1J
17
08
0*
1)
#199000
b11000111 "
1K
1L
#199500
0!
09
0:
#200000
b11001111 "
b11001011 "
b11001001 "
b11001000 "
0K
0I
0F
1C
0L
0G
1D
#200250
1!
19
1:
0J
0H
1E
15
06
07
0)
0(
1'
#201000
b11001001 "
0!
1K
09
0:
1L
#201750
1!
19
1:
1M
18
1*
#202000
b11001011 "
b11001010 "
0K
1I
0L
#202500
0!
09
0:
#203000
b11001011 "
1K
1L
#203250
1!
19
1:
1J
17
1)
#204000
b11001111 "
b11001101 "
b11001100 "
0!
0K
0I
1F
09
0:
0L
1G
#204750
1!
19
1:
0M
0J
1H
16
07
08
0*
0)
1(
#205000
b11001101 "
1K
1L
#205500
0!
09
0:
#206000
b11001111 "
b11001110 "
0K
1I
0L
#206250
1!
19
1:
1J
17
1)
#207000
b11001111 "
0!
1K
09
0:
1L
#207750
1!
19
1:
1M
18
1*
#208000
b11011111 "
b11010111 "
b11010011 "
b11010001 "
b11010000 "
0K
0I
0F
0C
1A
0L
0G
0D
#208500
0!
09
0:
#209000
b11010001 "
1K
1L
#209250
1!
19
1:
0J
0H
0E
1B
14
05
06
07
0)
0(
0'
1&
#210000
b11010011 "
b11010010 "
0!
0K
1I
09
0:
0L
#210750
1!
19
1:
0M
1J
17
08
0*
1)
#211000
b11010011 "
1K
1L
#211500
0!
09
0:
#212000
b11010111 "
b11010101 "
b11010100 "
0K
0I
1F
0L
1G
#212250
1!
19
1:
0J
1H
16
07
0)
1(
#213000
b11010101 "
0!
1K
09
0:
1L
#213750
1!
19
1:
1M
18
1*
#214000
b11010111 "
b11010110 "
0K
1I
0L
#214500
0!
09
0:
#215000
b11010111 "
1K
1L
#215250
1!
19
1:
1J
17
1)
#216000
b11011111 "
b11011011 "
b11011001 "
b11011000 "
0!
0K
0I
0F
1C
09
0:
0L
0G
1D
#216750
1!
19
1:
0M
0J
0H
1E
15
06
07
08
0*
0)
0(
1'
#217000
b11011001 "
1K
1L
#217500
0!
09
0:
#218000
b11011011 "
b11011010 "
0K
1I
0L
#218250
1!
19
1:
1J
17
1)
#219000
b11011011 "
0!
1K
09
0:
1L
#219750
1!
19
1:
1M
18
1*
#220000
b11011111 "
b11011101 "
b11011100 "
0K
0I
1F
0L
1G
#220500
0!
09
0:
#221000
b11011101 "
1K
1L
#221250
1!
19
1:
0J
1H
16
07
0)
1(
#222000
b11011111 "
b11011110 "
0!
0K
1I
09
0:
0L
#222750
1!
19
1:
0M
1J
17
08
0*
1)
#223000
b11011111 "
1K
1L
#223500
0!
09
0:
#224000
b11111111 "
b11101111 "
b11100111 "
b11100011 "
b11100001 "
b11100000 "
0K
0I
0F
0C
0A
1?
0L
0G
0D
#224250
1!
19
1:
0J
0H
0E
0B
1@
13
04
05
06
07
0)
0(
0'
0&
1%
#225000
b11100001 "
0!
1K
09
0:
1L
#225750
1!
19
1:
1M
18
1*
#226000
b11100011 "
b11100010 "
0K
1I
0L
#226500
0!
09
0:
#227000
b11100011 "
1K
1L
#227250
1!
19
1:
1J
17
1)
#228000
b11100111 "
b11100101 "
b11100100 "
0!
0K
0I
1F
09
0:
0L
1G
#228750
1!
19
1:
0M
0J
1H
16
07
08
0*
0)
1(
#229000
b11100101 "
1K
1L
#229500
0!
09
0:
#230000
b11100111 "
b11100110 "
0K
1I
0L
#230250
1!
19
1:
1J
17
1)
#231000
b11100111 "
0!
1K
09
0:
1L
#231750
1!
19
1:
1M
18
1*
#232000
b11101111 "
b11101011 "
b11101001 "
b11101000 "
0K
0I
0F
1C
0L
0G
1D
#232500
0!
09
0:
#233000
b11101001 "
1K
1L
#233250
1!
19
1:
0J
0H
1E
15
06
07
0)
0(
1'
#234000
b11101011 "
b11101010 "
0!
0K
1I
09
0:
0L
#234750
1!
19
1:
0M
1J
17
08
0*
1)
#235000
b11101011 "
1K
1L
#235500
0!
09
0:
#236000
b11101111 "
b11101101 "
b11101100 "
0K
0I
1F
0L
1G
#236250
1!
19
1:
0J
1H
16
07
0)
1(
#237000
b11101101 "
0!
1K
09
0:
1L
#237750
1!
19
1:
1M
18
1*
#238000
b11101111 "
b11101110 "
0K
1I
0L
#238500
0!
09
0:
#239000
b11101111 "
1K
1L
#239250
1!
19
1:
1J
17
1)
#240000
b11111111 "
b11110111 "
b11110011 "
b11110001 "
b11110000 "
0!
0K
0I
0F
0C
1A
09
0:
0L
0G
0D
#240750
1!
19
1:
0M
0J
0H
0E
1B
14
05
06
07
08
0*
0)
0(
0'
1&
#241000
b11110001 "
1K
1L
#241500
0!
09
0:
#242000
b11110011 "
b11110010 "
0K
1I
0L
#242250
1!
19
1:
1J
17
1)
#243000
b11110011 "
0!
1K
09
0:
1L
#243750
1!
19
1:
1M
18
1*
#244000
b11110111 "
b11110101 "
b11110100 "
0K
0I
1F
0L
1G
#244500
0!
09
0:
#245000
b11110101 "
1K
1L
#245250
1!
19
1:
0J
1H
16
07
0)
1(
#246000
b11110111 "
b11110110 "
0!
0K
1I
09
0:
0L
#246750
1!
19
1:
0M
1J
17
08
0*
1)
#247000
b11110111 "
1K
1L
#247500
0!
09
0:
#248000
b11111111 "
b11111011 "
b11111001 "
b11111000 "
0K
0I
0F
1C
0L
0G
1D
#248250
1!
19
1:
0J
0H
1E
15
06
07
0)
0(
1'
#249000
b11111001 "
0!
1K
09
0:
1L
#249750
1!
19
1:
1M
18
1*
#250000
b11111011 "
b11111010 "
0K
1I
0L
#250500
0!
09
0:
#251000
b11111011 "
1K
1L
#251250
1!
19
1:
1J
17
1)
#252000
b11111111 "
b11111101 "
b11111100 "
0!
0K
0I
1F
09
0:
0L
1G
#252750
1!
19
1:
0M
0J
1H
16
07
08
0*
0)
1(
#253000
b11111101 "
1K
1L
#253500
0!
09
0:
#254000
b11111111 "
b11111110 "
0K
1I
0L
#254250
1!
19
1:
1J
17
1)
#255000
b11111111 "
0!
1K
09
0:
1L
#255750
1!
19
1:
1M
18
1*
