计算机硬件综合课程设计/quartus/rom/simulation/qsim/rom2627.msim.vcd
$comment
	File created using the following command:
		vcd file rom2627.msim.vcd -direction
$end
$date
	Mon Oct 09 23:39:02 2023
$end
$version
	ModelSim Version 10.5b
$end
$timescale
	1ps
$end

$scope module rom2627_vlg_vec_tst $end
$var reg 6 ! address [5:0] $end
$var reg 1 " clock $end
$var wire 1 # q [23] $end
$var wire 1 $ q [22] $end
$var wire 1 % q [21] $end
$var wire 1 & q [20] $end
$var wire 1 ' q [19] $end
$var wire 1 ( q [18] $end
$var wire 1 ) q [17] $end
$var wire 1 * q [16] $end
$var wire 1 + q [15] $end
$var wire 1 , q [14] $end
$var wire 1 - q [13] $end
$var wire 1 . q [12] $end
$var wire 1 / q [11] $end
$var wire 1 0 q [10] $end
$var wire 1 1 q [9] $end
$var wire 1 2 q [8] $end
$var wire 1 3 q [7] $end
$var wire 1 4 q [6] $end
$var wire 1 5 q [5] $end
$var wire 1 6 q [4] $end
$var wire 1 7 q [3] $end
$var wire 1 8 q [2] $end
$var wire 1 9 q [1] $end
$var wire 1 : q [0] $end

$scope module i1 $end
$var wire 1 ; gnd $end
$var wire 1 < vcc $end
$var wire 1 = unknown $end
$var tri1 1 > devclrn $end
$var tri1 1 ? devpor $end
$var tri1 1 @ devoe $end
$var wire 1 A q[23]~output_o $end
$var wire 1 B q[22]~output_o $end
$var wire 1 C q[21]~output_o $end
$var wire 1 D q[20]~output_o $end
$var wire 1 E q[19]~output_o $end
$var wire 1 F q[18]~output_o $end
$var wire 1 G q[17]~output_o $end
$var wire 1 H q[16]~output_o $end
$var wire 1 I q[15]~output_o $end
$var wire 1 J q[14]~output_o $end
$var wire 1 K q[13]~output_o $end
$var wire 1 L q[12]~output_o $end
$var wire 1 M q[11]~output_o $end
$var wire 1 N q[10]~output_o $end
$var wire 1 O q[9]~output_o $end
$var wire 1 P q[8]~output_o $end
$var wire 1 Q q[7]~output_o $end
$var wire 1 R q[6]~output_o $end
$var wire 1 S q[5]~output_o $end
$var wire 1 T q[4]~output_o $end
$var wire 1 U q[3]~output_o $end
$var wire 1 V q[2]~output_o $end
$var wire 1 W q[1]~output_o $end
$var wire 1 X q[0]~output_o $end
$var wire 1 Y clock~input_o $end
$var wire 1 Z clock~inputclkctrl_outclk $end
$var wire 1 [ address[0]~input_o $end
$var wire 1 \ address[1]~input_o $end
$var wire 1 ] address[2]~input_o $end
$var wire 1 ^ address[3]~input_o $end
$var wire 1 _ address[4]~input_o $end
$var wire 1 ` address[5]~input_o $end
$var wire 1 a inst|srom|rom_block|auto_generated|q_a [23] $end
$var wire 1 b inst|srom|rom_block|auto_generated|q_a [22] $end
$var wire 1 c inst|srom|rom_block|auto_generated|q_a [21] $end
$var wire 1 d inst|srom|rom_block|auto_generated|q_a [20] $end
$var wire 1 e inst|srom|rom_block|auto_generated|q_a [19] $end
$var wire 1 f inst|srom|rom_block|auto_generated|q_a [18] $end
$var wire 1 g inst|srom|rom_block|auto_generated|q_a [17] $end
$var wire 1 h inst|srom|rom_block|auto_generated|q_a [16] $end
$var wire 1 i inst|srom|rom_block|auto_generated|q_a [15] $end
$var wire 1 j inst|srom|rom_block|auto_generated|q_a [14] $end
$var wire 1 k inst|srom|rom_block|auto_generated|q_a [13] $end
$var wire 1 l inst|srom|rom_block|auto_generated|q_a [12] $end
$var wire 1 m inst|srom|rom_block|auto_generated|q_a [11] $end
$var wire 1 n inst|srom|rom_block|auto_generated|q_a [10] $end
$var wire 1 o inst|srom|rom_block|auto_generated|q_a [9] $end
$var wire 1 p inst|srom|rom_block|auto_generated|q_a [8] $end
$var wire 1 q inst|srom|rom_block|auto_generated|q_a [7] $end
$var wire 1 r inst|srom|rom_block|auto_generated|q_a [6] $end
$var wire 1 s inst|srom|rom_block|auto_generated|q_a [5] $end
$var wire 1 t inst|srom|rom_block|auto_generated|q_a [4] $end
$var wire 1 u inst|srom|rom_block|auto_generated|q_a [3] $end
$var wire 1 v inst|srom|rom_block|auto_generated|q_a [2] $end
$var wire 1 w inst|srom|rom_block|auto_generated|q_a [1] $end
$var wire 1 x inst|srom|rom_block|auto_generated|q_a [0] $end
$var wire 1 y inst|srom|rom_block|auto_generated|ram_block1a0_PORTADATAOUT_bus [35] $end
$var wire 1 z inst|srom|rom_block|auto_generated|ram_block1a0_PORTADATAOUT_bus [34] $end
$var wire 1 { inst|srom|rom_block|auto_generated|ram_block1a0_PORTADATAOUT_bus [33] $end
$var wire 1 | inst|srom|rom_block|auto_generated|ram_block1a0_PORTADATAOUT_bus [32] $end
$var wire 1 } inst|srom|rom_block|auto_generated|ram_block1a0_PORTADATAOUT_bus [31] $end
$var wire 1 ~ inst|srom|rom_block|auto_generated|ram_block1a0_PORTADATAOUT_bus [30] $end
$var wire 1 !! inst|srom|rom_block|auto_generated|ram_block1a0_PORTADATAOUT_bus [29] $end
$var wire 1 "! inst|srom|rom_block|auto_generated|ram_block1a0_PORTADATAOUT_bus [28] $end
$var wire 1 #! inst|srom|rom_block|auto_generated|ram_block1a0_PORTADATAOUT_bus [27] $end
$var wire 1 $! inst|srom|rom_block|auto_generated|ram_block1a0_PORTADATAOUT_bus [26] $end
$var wire 1 %! inst|srom|rom_block|auto_generated|ram_block1a0_PORTADATAOUT_bus [25] $end
$var wire 1 &! inst|srom|rom_block|auto_generated|ram_block1a0_PORTADATAOUT_bus [24] $end
$var wire 1 '! inst|srom|rom_block|auto_generated|ram_block1a0_PORTADATAOUT_bus [23] $end
$var wire 1 (! inst|srom|rom_block|auto_generated|ram_block1a0_PORTADATAOUT_bus [22] $end
$var wire 1 )! inst|srom|rom_block|auto_generated|ram_block1a0_PORTADATAOUT_bus [21] $end
$var wire 1 *! inst|srom|rom_block|auto_generated|ram_block1a0_PORTADATAOUT_bus [20] $end
$var wire 1 +! inst|srom|rom_block|auto_generated|ram_block1a0_PORTADATAOUT_bus [19] $end
$var wire 1 ,! inst|srom|rom_block|auto_generated|ram_block1a0_PORTADATAOUT_bus [18] $end
$var wire 1 -! inst|srom|rom_block|auto_generated|ram_block1a0_PORTADATAOUT_bus [17] $end
$var wire 1 .! inst|srom|rom_block|auto_generated|ram_block1a0_PORTADATAOUT_bus [16] $end
$var wire 1 /! inst|srom|rom_block|auto_generated|ram_block1a0_PORTADATAOUT_bus [15] $end
$var wire 1 0! inst|srom|rom_block|auto_generated|ram_block1a0_PORTADATAOUT_bus [14] $end
$var wire 1 1! inst|srom|rom_block|auto_generated|ram_block1a0_PORTADATAOUT_bus [13] $end
$var wire 1 2! inst|srom|rom_block|auto_generated|ram_block1a0_PORTADATAOUT_bus [12] $end
$var wire 1 3! inst|srom|rom_block|auto_generated|ram_block1a0_PORTADATAOUT_bus [11] $end
$var wire 1 4! inst|srom|rom_block|auto_generated|ram_block1a0_PORTADATAOUT_bus [10] $end
$var wire 1 5! inst|srom|rom_block|auto_generated|ram_block1a0_PORTADATAOUT_bus [9] $end
$var wire 1 6! inst|srom|rom_block|auto_generated|ram_block1a0_PORTADATAOUT_bus [8] $end
$var wire 1 7! inst|srom|rom_block|auto_generated|ram_block1a0_PORTADATAOUT_bus [7] $end
$var wire 1 8! inst|srom|rom_block|auto_generated|ram_block1a0_PORTADATAOUT_bus [6] $end
$var wire 1 9! inst|srom|rom_block|auto_generated|ram_block1a0_PORTADATAOUT_bus [5] $end
$var wire 1 :! inst|srom|rom_block|auto_generated|ram_block1a0_PORTADATAOUT_bus [4] $end
$var wire 1 ;! inst|srom|rom_block|auto_generated|ram_block1a0_PORTADATAOUT_bus [3] $end
$var wire 1 <! inst|srom|rom_block|auto_generated|ram_block1a0_PORTADATAOUT_bus [2] $end
$var wire 1 =! inst|srom|rom_block|auto_generated|ram_block1a0_PORTADATAOUT_bus [1] $end
$var wire 1 >! inst|srom|rom_block|auto_generated|ram_block1a0_PORTADATAOUT_bus [0] $end
$upscope $end
$upscope $end
$enddefinitions $end
#0
$dumpvars
b0 !
0"
0:
09
08
07
06
05
04
03
02
01
00
0/
0.
0-
0,
0+
0*
0)
0(
0'
0&
0%
0$
0#
0;
1<
x=
1>
1?
1@
0A
0B
0C
0D
0E
0F
0G
0H
0I
0J
0K
0L
0M
0N
0O
0P
0Q
0R
0S
0T
0U
0V
0W
0X
0Y
0Z
0[
0\
0]
0^
0_
0`
0x
0w
0v
0u
0t
0s
0r
0q
0p
0o
0n
0m
0l
0k
0j
0i
0h
0g
0f
0e
0d
0c
0b
0a
0>!
0=!
0<!
0;!
0:!
09!
08!
07!
06!
05!
04!
03!
02!
01!
00!
0/!
0.!
0-!
0,!
0+!
0*!
0)!
0(!
0'!
0&!
0%!
0$!
0#!
0"!
0!!
0~
0}
0|
0{
0z
0y
$end
#500
1"
1Y
1Z
#1000
b1 !
0"
1[
0Y
0Z
#1500
1"
1Y
1Z
#1501
1<!
1:!
19!
15!
12!
1v
1t
1s
1o
1l
1L
1O
1S
1T
1V
18
16
15
11
1.
#2000
b11 !
b10 !
0"
0[
1\
0Y
0Z
#2500
1"
1Y
1Z
#2501
0<!
1;!
0:!
18!
05!
14!
02!
11!
0v
1u
0t
1r
0o
1n
0l
1k
1K
0L
1N
0O
1R
0T
1U
0V
08
17
06
14
01
10
0.
1-
#3000
b11 !
0"
1[
0Y
0Z
#3500
1"
1Y
1Z
#3501
1<!
1:!
09!
08!
17!
15!
12!
1v
1t
0s
0r
1q
1o
1l
1L
1O
1Q
0R
0S
1T
1V
18
16
05
04
13
11
1.
#4000
b111 !
b101 !
b100 !
0"
0[
0\
1]
0Y
0Z
#4500
1"
1Y
1Z
#4501
0<!
0;!
18!
05!
04!
13!
02!
01!
10!
0v
0u
1r
0o
0n
1m
0l
0k
1j
1J
0K
0L
1M
0N
0O
1R
0U
0V
08
07
14
01
00
1/
0.
0-
1,
#5000
b101 !
0"
1[
0Y
0Z
#5500
1"
1Y
1Z
#5501
1<!
0:!
08!
07!
16!
15!
12!
1v
0t
0r
0q
1p
1o
1l
1L
1O
1P
0Q
0R
0T
1V
18
06
04
03
12
11
1.
#6000
b111 !
b110 !
0"
0[
1\
0Y
0Z
#6500
1"
1Y
1Z
#6501
0<!
1;!
1:!
19!
05!
14!
02!
11!
0v
1u
1t
1s
0o
1n
0l
1k
1K
0L
1N
0O
1S
1T
1U
0V
08
17
16
15
01
10
0.
1-
#7000
b111 !
0"
1[
0Y
0Z
#7500
1"
1Y
1Z
#7501
1<!
0:!
18!
15!
12!
1v
0t
1r
1o
1l
1L
1O
1R
0T
1V
18
06
14
11
1.
#8000
b1111 !
b1011 !
b1001 !
b1000 !
0"
0[
0\
0]
1^
0Y
0Z
#8500
1"
1Y
1Z
#8501
0<!
0;!
08!
17!
05!
04!
03!
01!
00!
1/!
0v
0u
0r
1q
0o
0n
0m
0k
0j
1i
1I
0J
0K
0M
0N
0O
1Q
0R
0U
0V
08
07
04
13
01
00
0/
0-
0,
1+
#9000
b1001 !
0"
1[
0Y
0Z
#9500
1"
1Y
1Z
#9501
1<!
1:!
09!
18!
15!
02!
11!
1v
1t
0s
1r
1o
0l
1k
1K
0L
1O
1R
0S
1T
1V
18
16
05
14
11
0.
1-
#10000
b1011 !
b1010 !
0"
0[
1\
0Y
0Z
#10500
1"
1Y
1Z
#10501
0<!
1;!
0:!
08!
07!
06!
14!
12!
0v
1u
0t
0r
0q
0p
1n
1l
1L
1N
0P
0Q
0R
0T
1U
0V
08
17
06
04
03
02
10
1.
#11000
b1011 !
0"
1[
0Y
0Z
#11500
1"
1Y
1Z
#11501
1<!
1:!
19!
05!
04!
13!
02!
01!
10!
1v
1t
1s
0o
0n
1m
0l
0k
1j
1J
0K
0L
1M
0N
0O
1S
1T
1V
18
16
15
01
00
1/
0.
0-
1,
#12000
b1111 !
b1101 !
b1100 !
0"
0[
0\
1]
0Y
0Z
#12500
1"
1Y
1Z
#12501
0<!
0;!
18!
15!
12!
0v
0u
1r
1o
1l
1L
1O
1R
0U
0V
08
07
14
11
1.
#13000
b1101 !
0"
1[
0Y
0Z
#13500
1"
1Y
1Z
#13501
1<!
0:!
08!
17!
05!
14!
02!
11!
1v
0t
0r
1q
0o
1n
0l
1k
1K
0L
1N
0O
1Q
0R
0T
1V
18
06
04
13
01
10
0.
1-
#14000
b1111 !
b1110 !
0"
0[
1\
0Y
0Z
#14500
1"
1Y
1Z
#14501
0<!
1;!
1:!
09!
18!
15!
12!
0v
1u
1t
0s
1r
1o
1l
1L
1O
1R
0S
1T
1U
0V
08
17
16
05
14
11
1.
#15000
b1111 !
0"
1[
0Y
0Z
#15500
1"
1Y
1Z
#15501
1<!
0:!
08!
07!
16!
05!
04!
03!
01!
00!
0/!
1.!
1v
0t
0r
0q
1p
0o
0n
0m
0k
0j
0i
1h
1H
0I
0J
0K
0M
0N
0O
1P
0Q
0R
0T
1V
18
06
04
03
12
01
00
0/
0-
0,
0+
1*
#16000
b11111 !
b10111 !
b10011 !
b10001 !
b10000 !
0"
0[
0\
0]
0^
1_
0Y
0Z
#16500
1"
1Y
1Z
#16501
0<!
0;!
18!
15!
02!
11!
0v
0u
1r
1o
0l
1k
1K
0L
1O
1R
0U
0V
08
07
14
11
0.
1-
#17000
b10001 !
0"
1[
0Y
0Z
#17500
1"
1Y
1Z
#17501
1<!
1:!
19!
05!
14!
12!
1v
1t
1s
0o
1n
1l
1L
1N
0O
1S
1T
1V
18
16
15
01
10
1.
#18000
b10011 !
b10010 !
0"
0[
1\
0Y
0Z
#18500
1"
1Y
1Z
#18501
0<!
1;!
0:!
08!
17!
15!
02!
01!
10!
0v
1u
0t
0r
1q
1o
0l
0k
1j
1J
0K
0L
1O
1Q
0R
0T
1U
0V
08
17
06
04
13
11
0.
0-
1,
#19000
b10011 !
0"
1[
0Y
0Z
#19500
1"
1Y
1Z
#19501
1<!
1:!
09!
18!
05!
04!
13!
12!
1v
1t
0s
1r
0o
0n
1m
1l
1L
1M
0N
0O
1R
0S
1T
1V
18
16
05
14
01
00
1/
1.
#20000
b10111 !
b10101 !
b10100 !
0"
0[
0\
1]
0Y
0Z
#20500
1"
1Y
1Z
#20501
0<!
0;!
08!
07!
06!
14!
02!
11!
0v
0u
0r
0q
0p
1n
0l
1k
1K
0L
1N
0P
0Q
0R
0U
0V
08
07
04
03
02
10
0.
1-
#21000
b10101 !
0"
1[
0Y
0Z
#21500
1"
1Y
1Z
#21501
1<!
0:!
18!
15!
12!
1v
0t
1r
1o
1l
1L
1O
1R
0T
1V
18
06
14
11
1.
#22000
b10111 !
b10110 !
0"
0[
1\
0Y
0Z
#22500
1"
1Y
1Z
#22501
0<!
1;!
1:!
19!
05!
04!
03!
01!
00!
1/!
0v
1u
1t
1s
0o
0n
0m
0k
0j
1i
1I
0J
0K
0M
0N
0O
1S
1T
1U
0V
08
17
16
15
01
00
0/
0-
0,
1+
#23000
b10111 !
0"
1[
0Y
0Z
#23500
1"
1Y
1Z
#23501
1<!
0:!
08!
17!
15!
02!
11!
1v
0t
0r
1q
1o
0l
1k
1K
0L
1O
1Q
0R
0T
1V
18
06
04
13
11
0.
1-
#24000
b11111 !
b11011 !
b11001 !
b11000 !
0"
0[
0\
0]
1^
0Y
0Z
#24500
1"
1Y
1Z
#24501
0<!
0;!
18!
05!
14!
12!
0v
0u
1r
0o
1n
1l
1L
1N
0O
1R
0U
0V
08
07
14
01
10
1.
#25000
b11001 !
0"
1[
0Y
0Z
#25500
1"
1Y
1Z
#25501
1<!
1:!
09!
08!
07!
16!
15!
02!
01!
10!
1v
1t
0s
0r
0q
1p
1o
0l
0k
1j
1J
0K
0L
1O
1P
0Q
0R
0S
1T
1V
18
16
05
04
03
12
11
0.
0-
1,
#26000
b11011 !
b11010 !
0"
0[
1\
0Y
0Z
#26500
1"
1Y
1Z
#26501
0<!
1;!
0:!
18!
05!
04!
13!
12!
0v
1u
0t
1r
0o
0n
1m
1l
1L
1M
0N
0O
1R
0T
1U
0V
08
17
06
14
01
00
1/
1.
#27000
b11011 !
0"
1[
0Y
0Z
#27500
1"
1Y
1Z
#27501
1<!
1:!
19!
15!
02!
11!
1v
1t
1s
1o
0l
1k
1K
0L
1O
1S
1T
1V
18
16
15
11
0.
1-
#28000
b11111 !
b11101 !
b11100 !
0"
0[
0\
1]
0Y
0Z
#28500
1"
1Y
1Z
#28501
0<!
0;!
08!
17!
05!
14!
12!
0v
0u
0r
1q
0o
1n
1l
1L
1N
0O
1Q
0R
0U
0V
08
07
04
13
01
10
1.
#29000
b11101 !
0"
1[
0Y
0Z
#29500
1"
1Y
1Z
#29501
1<!
0:!
18!
15!
02!
01!
00!
0/!
0.!
1-!
1v
0t
1r
1o
0l
0k
0j
0i
0h
1g
1G
0H
0I
0J
0K
0L
1O
1R
0T
1V
18
06
14
11
0.
0-
0,
0+
0*
1)
#30000
b11111 !
b11110 !
0"
0[
1\
0Y
0Z
#30500
1"
1Y
1Z
#30501
0<!
1;!
1:!
09!
08!
07!
06!
04!
03!
11!
0v
1u
1t
0s
0r
0q
0p
0n
0m
1k
1K
0M
0N
0P
0Q
0R
0S
1T
1U
0V
08
17
16
05
04
03
02
00
0/
1-
#31000
b11111 !
0"
1[
0Y
0Z
#31500
1"
1Y
1Z
#31501
1<!
0:!
18!
05!
14!
12!
1v
0t
1r
0o
1n
1l
1L
1N
0O
1R
0T
1V
18
06
14
01
10
1.
#32000
b111111 !
b101111 !
b100111 !
b100011 !
b100001 !
b100000 !
0"
0[
0\
0]
0^
0_
1`
0Y
0Z
#32500
1"
1Y
1Z
#32501
0<!
0;!
08!
17!
15!
02!
01!
10!
0v
0u
0r
1q
1o
0l
0k
1j
1J
0K
0L
1O
1Q
0R
0U
0V
08
07
04
13
11
0.
0-
1,
#33000
b100001 !
0"
1[
0Y
0Z
#33500
1"
1Y
1Z
#33501
1<!
1:!
19!
05!
04!
13!
12!
1v
1t
1s
0o
0n
1m
1l
1L
1M
0N
0O
1S
1T
1V
18
16
15
01
00
1/
1.
#34000
b100011 !
b100010 !
0"
0[
1\
0Y
0Z
#34500
1"
1Y
1Z
#34501
0<!
1;!
0:!
18!
15!
02!
11!
0v
1u
0t
1r
1o
0l
1k
1K
0L
1O
1R
0T
1U
0V
08
17
06
14
11
0.
1-
#35000
b100011 !
0"
1[
0Y
0Z
#35500
1"
1Y
1Z
#35501
1<!
1:!
09!
08!
07!
16!
05!
14!
12!
1v
1t
0s
0r
0q
1p
0o
1n
1l
1L
1N
0O
1P
0Q
0R
0S
1T
1V
18
16
05
04
03
12
01
10
1.
#36000
b100111 !
b100101 !
b100100 !
0"
0[
0\
1]
0Y
0Z
#36500
1"
1Y
1Z
#36501
0<!
0;!
18!
15!
02!
01!
00!
1/!
0v
0u
1r
1o
0l
0k
0j
1i
1I
0J
0K
0L
1O
1R
0U
0V
08
07
14
11
0.
0-
0,
1+
#37000
b100101 !
0"
1[
0Y
0Z
#37500
1"
1Y
1Z
#37501
1<!
0:!
08!
17!
05!
04!
03!
11!
1v
0t
0r
1q
0o
0n
0m
1k
1K
0M
0N
0O
1Q
0R
0T
1V
18
06
04
13
01
00
0/
1-
#38000
b100111 !
b100110 !
0"
0[
1\
0Y
0Z
#38500
1"
1Y
1Z
#38501
0<!
1;!
1:!
19!
15!
12!
0v
1u
1t
1s
1o
1l
1L
1O
1S
1T
1U
0V
08
17
16
15
11
1.
#39000
b100111 !
0"
1[
0Y
0Z
#39500
1"
1Y
1Z
#39501
1<!
0:!
18!
05!
14!
02!
01!
10!
1v
0t
1r
0o
1n
0l
0k
1j
1J
0K
0L
1N
0O
1R
0T
1V
18
06
14
01
10
0.
0-
1,
#40000
b101111 !
b101011 !
b101001 !
b101000 !
0"
0[
0\
0]
1^
0Y
0Z
#40500
1"
1Y
1Z
#40501
0<!
0;!
08!
07!
06!
04!
13!
12!
0v
0u
0r
0q
0p
0n
1m
1l
1L
1M
0N
0P
0Q
0R
0U
0V
08
07
04
03
02
00
1/
1.
#41000
b101001 !
0"
1[
0Y
0Z
#41500
1"
1Y
1Z
#41501
1<!
1:!
09!
18!
15!
02!
11!
1v
1t
0s
1r
1o
0l
1k
1K
0L
1O
1R
0S
1T
1V
18
16
05
14
11
0.
1-
#42000
b101011 !
b101010 !
0"
0[
1\
0Y
0Z
#42500
1"
1Y
1Z
#42501
0<!
1;!
0:!
08!
17!
05!
14!
12!
0v
1u
0t
0r
1q
0o
1n
1l
1L
1N
0O
1Q
0R
0T
1U
0V
08
17
06
04
13
01
10
1.
#43000
b101011 !
0"
1[
0Y
0Z
#43500
1"
1Y
1Z
#43501
1<!
1:!
19!
15!
02!
01!
00!
0/!
1.!
1v
1t
1s
1o
0l
0k
0j
0i
1h
1H
0I
0J
0K
0L
1O
1S
1T
1V
18
16
15
11
0.
0-
0,
0+
1*
#44000
b101111 !
b101101 !
b101100 !
0"
0[
0\
1]
0Y
0Z
#44500
1"
1Y
1Z
#44501
0<!
0;!
18!
05!
04!
03!
11!
0v
0u
1r
0o
0n
0m
1k
1K
0M
0N
0O
1R
0U
0V
08
07
14
01
00
0/
1-
#45000
b101101 !
0"
1[
0Y
0Z
#45500
1"
1Y
1Z
#45501
1<!
0:!
08!
07!
16!
15!
12!
1v
0t
0r
0q
1p
1o
1l
1L
1O
1P
0Q
0R
0T
1V
18
06
04
03
12
11
1.
#46000
b101111 !
b101110 !
0"
0[
1\
0Y
0Z
#46500
1"
1Y
1Z
#46501
0<!
1;!
1:!
09!
18!
05!
14!
02!
01!
10!
0v
1u
1t
0s
1r
0o
1n
0l
0k
1j
1J
0K
0L
1N
0O
1R
0S
1T
1U
0V
08
17
16
05
14
01
10
0.
0-
1,
#47000
b101111 !
0"
1[
0Y
0Z
#47500
1"
1Y
1Z
#47501
1<!
0:!
08!
17!
15!
12!
1v
0t
0r
1q
1o
1l
1L
1O
1Q
0R
0T
1V
18
06
04
13
11
1.
#48000
b111111 !
b110111 !
b110011 !
b110001 !
b110000 !
0"
0[
0\
0]
0^
1_
0Y
0Z
#48500
1"
1Y
1Z
#48501
0<!
0;!
18!
05!
04!
13!
02!
11!
0v
0u
1r
0o
0n
1m
0l
1k
1K
0L
1M
0N
0O
1R
0U
0V
08
07
14
01
00
1/
0.
1-
#49000
b110001 !
0"
1[
0Y
0Z
#49500
1"
1Y
1Z
#49501
1<!
1:!
19!
15!
12!
1v
1t
1s
1o
1l
1L
1O
1S
1T
1V
18
16
15
11
1.
#50000
b110011 !
b110010 !
0"
0[
1\
0Y
0Z
#50500
1"
1Y
1Z
#50501
0<!
1;!
0:!
08!
07!
06!
14!
02!
01!
00!
1/!
0v
1u
0t
0r
0q
0p
1n
0l
0k
0j
1i
1I
0J
0K
0L
1N
0P
0Q
0R
0T
1U
0V
08
17
06
04
03
02
10
0.
0-
0,
1+
#51000
b110011 !
0"
1[
0Y
0Z
#51500
1"
1Y
1Z
#51501
1<!
1:!
09!
18!
05!
04!
03!
11!
1v
1t
0s
1r
0o
0n
0m
1k
1K
0M
0N
0O
1R
0S
1T
1V
18
16
05
14
01
00
0/
1-
#52000
b110111 !
b110101 !
b110100 !
0"
0[
0\
1]
0Y
0Z
#52500
1"
1Y
1Z
#52501
0<!
0;!
08!
17!
15!
12!
0v
0u
0r
1q
1o
1l
1L
1O
1Q
0R
0U
0V
08
07
04
13
11
1.
#53000
b110101 !
0"
1[
0Y
0Z
#53500
1"
1Y
1Z
#53501
1<!
0:!
18!
05!
14!
02!
01!
10!
1v
0t
1r
0o
1n
0l
0k
1j
1J
0K
0L
1N
0O
1R
0T
1V
18
06
14
01
10
0.
0-
1,
#54000
b110111 !
b110110 !
0"
0[
1\
0Y
0Z
#54500
1"
1Y
1Z
#54501
0<!
1;!
1:!
19!
15!
12!
0v
1u
1t
1s
1o
1l
1L
1O
1S
1T
1U
0V
08
17
16
15
11
1.
#55000
b110111 !
0"
1[
0Y
0Z
#55500
1"
1Y
1Z
#55501
1<!
0:!
08!
07!
16!
05!
04!
13!
02!
11!
1v
0t
0r
0q
1p
0o
0n
1m
0l
1k
1K
0L
1M
0N
0O
1P
0Q
0R
0T
1V
18
06
04
03
12
01
00
1/
0.
1-
#56000
b111111 !
b111011 !
b111001 !
b111000 !
0"
0[
0\
0]
1^
0Y
0Z
#56500
1"
1Y
1Z
#56501
0<!
0;!
18!
15!
12!
0v
0u
1r
1o
1l
1L
1O
1R
0U
0V
08
07
14
11
1.
#57000
b111001 !
0"
1[
0Y
0Z
#57500
1"
1Y
1Z
#57501
1<!
1:!
09!
08!
17!
05!
14!
02!
01!
00!
0/!
0.!
0-!
1,!
1v
1t
0s
0r
1q
0o
1n
0l
0k
0j
0i
0h
0g
1f
1F
0G
0H
0I
0J
0K
0L
1N
0O
1Q
0R
0S
1T
1V
18
16
05
04
13
01
10
0.
0-
0,
0+
0*
0)
1(
#58000
b111011 !
b111010 !
0"
0[
1\
0Y
0Z
#58500
1"
1Y
1Z
#58501
0<!
1;!
0:!
18!
15!
12!
0v
1u
0t
1r
1o
1l
1L
1O
1R
0T
1U
0V
08
17
06
14
11
1.
#59000
b111011 !
0"
1[
0Y
0Z
#59500
1"
1Y
1Z
#59501
1<!
1:!
19!
05!
04!
03!
11!
1v
1t
1s
0o
0n
0m
1k
1K
0M
0N
0O
1S
1T
1V
18
16
15
01
00
0/
1-
#60000
b111111 !
b111101 !
b111100 !
0"
0[
0\
1]
0Y
0Z
#60500
1"
1Y
1Z
#60501
0<!
0;!
08!
07!
06!
14!
02!
01!
10!
0v
0u
0r
0q
0p
1n
0l
0k
1j
1J
0K
0L
1N
0P
0Q
0R
0U
0V
08
07
04
03
02
10
0.
0-
1,
#61000
b111101 !
0"
1[
0Y
0Z
#61500
1"
1Y
1Z
#61501
1<!
0:!
18!
15!
12!
1v
0t
1r
1o
1l
1L
1O
1R
0T
1V
18
06
14
11
1.
#62000
b111111 !
b111110 !
0"
0[
1\
0Y
0Z
#62500
1"
1Y
1Z
#62501
0<!
1;!
1:!
09!
08!
17!
05!
04!
13!
02!
11!
0v
1u
1t
0s
0r
1q
0o
0n
1m
0l
1k
1K
0L
1M
0N
0O
1Q
0R
0S
1T
1U
0V
08
17
16
05
04
13
01
00
1/
0.
1-
#63000
b111111 !
0"
1[
0Y
0Z
#63500
1"
1Y
1Z
#63501
1<!
0:!
18!
15!
12!
1v
0t
1r
1o
1l
1L
1O
1R
0T
1V
18
06
14
11
1.
